# 3ds Max Wavefront OBJ Exporter v0.97b - (c)2007 guruware
# File Created: 03.12.2017 23:31:24

mtllib cargo01.mtl

#
# object cargo01_obj
#

v  72.0639 150.6067 -161.0479
v  -14.5552 150.6067 -161.0479
v  -14.5552 157.3024 -161.0479
v  72.0639 157.3024 -161.0479
v  -14.5552 150.6067 -145.2299
v  -14.5552 157.3024 -145.2299
v  59.3323 118.8176 -152.7643
v  -12.3220 118.8176 -152.7643
v  -12.3220 152.9399 -158.7885
v  69.8307 152.9399 -158.7885
v  -12.3220 118.8176 -145.2299
v  -12.3220 152.9399 -145.2299
v  72.0639 150.6067 -145.2299
v  72.0639 157.3024 -145.2299
v  59.3323 118.8176 -145.2299
v  69.8307 152.9399 -145.2299
v  -32.0060 135.4301 -155.8505
v  -32.0060 131.5970 -145.2299
v  -32.0060 153.0489 -145.2299
v  -32.0060 149.2158 -155.8505
v  -33.2410 129.3017 -145.2299
v  -33.2410 134.3252 -158.6709
v  -23.4305 134.3252 -158.6709
v  -23.4305 129.3017 -145.2299
v  -33.2410 150.3207 -158.6709
v  -33.2410 155.3442 -145.2299
v  -23.4305 155.3442 -145.2299
v  -23.4305 150.3207 -158.6709
v  -22.6194 145.7393 -150.7285
v  -22.6194 147.7937 -145.2299
v  -10.2392 147.7937 -145.2299
v  -10.2392 145.7393 -150.7285
v  -22.6194 138.9066 -150.7285
v  -10.2392 138.9066 -150.7285
v  -25.4428 147.5279 -154.3102
v  -25.4428 150.4503 -145.2299
v  -21.2334 150.4503 -145.2299
v  -21.2334 147.5279 -154.3102
v  -25.4428 137.1180 -154.3102
v  -21.2334 137.1180 -154.3102
v  -16.3255 120.9766 -152.1331
v  -16.3255 120.9766 -145.2299
v  -16.3255 155.3010 -145.2299
v  -16.3255 155.3010 -152.1331
v  -10.8130 120.9766 -152.1331
v  -10.8130 120.9766 -145.2299
v  -10.8130 155.3010 -145.2299
v  -10.8130 155.3010 -152.1331
v  -33.2410 131.5970 -145.2299
v  -33.2410 135.4301 -155.8505
v  -33.2410 149.2158 -155.8505
v  -33.2410 153.0489 -145.2299
v  72.8613 153.8596 -154.3569
v  72.8613 153.8596 -145.2299
v  71.9475 153.8596 -145.2299
v  71.9475 153.8596 -154.3569
v  72.8613 156.2055 -154.3569
v  71.9475 156.2055 -154.3569
v  -22.6194 136.8522 -145.2299
v  -10.2392 136.8522 -145.2299
v  -25.4428 134.1957 -145.2299
v  -21.2334 134.1957 -145.2299
v  72.8613 156.2055 -145.2299
v  71.9475 156.2055 -145.2299
v  72.0639 150.6067 -129.4120
v  72.0639 157.3024 -129.4120
v  -14.5552 157.3024 -129.4120
v  -14.5552 150.6067 -129.4120
v  59.3323 118.8176 -137.6955
v  69.8307 152.9399 -131.6714
v  -12.3220 152.9399 -131.6714
v  -12.3220 118.8176 -137.6955
v  -32.0060 135.4301 -134.6094
v  -32.0060 149.2158 -134.6094
v  -23.4305 134.3252 -131.7890
v  -33.2410 134.3252 -131.7890
v  -33.2410 150.3207 -131.7890
v  -23.4305 150.3207 -131.7890
v  -22.6194 145.7393 -139.7313
v  -10.2392 145.7393 -139.7313
v  -22.6194 138.9066 -139.7313
v  -10.2392 138.9066 -139.7313
v  -25.4428 147.5279 -136.1496
v  -21.2334 147.5279 -136.1496
v  -25.4428 137.1180 -136.1496
v  -21.2334 137.1180 -136.1496
v  -16.3255 120.9766 -138.3268
v  -16.3255 155.3010 -138.3268
v  -10.8130 120.9766 -138.3268
v  -10.8130 155.3010 -138.3268
v  -33.2410 135.4301 -134.6094
v  -33.2410 149.2158 -134.6094
v  72.8613 153.8596 -136.1030
v  71.9475 153.8596 -136.1030
v  72.8613 156.2055 -136.1030
v  71.9475 156.2055 -136.1030
# 96 vertices

vn 0.0000 0.0000 -1.0000
vn -1.0000 0.0000 -0.0000
vn 0.0000 -0.1739 -0.9848
vn 0.0000 -1.0000 -0.0000
vn 0.0000 1.0000 -0.0000
vn 1.0000 0.0000 -0.0000
vn 0.9558 -0.2941 -0.0000
vn 0.0000 -0.9367 -0.3501
vn 0.0000 0.9367 -0.3501
vn 0.0000 0.9368 -0.3500
vn 0.0000 0.9519 -0.3064
vn 0.0000 0.9406 0.3395
vn 0.0000 -0.9406 0.3395
vn 0.0000 0.0000 1.0000
vn 0.0000 -1.0000 0.0000
vn 0.0000 -0.9368 -0.3500
vn 0.0000 -0.9519 -0.3064
vn 0.0000 -0.1739 0.9848
vn 0.0000 -0.9367 0.3501
vn 0.0000 0.9367 0.3501
vn 0.0000 0.9368 0.3500
vn 0.0000 0.9519 0.3064
vn 0.0000 0.9406 -0.3395
vn 0.0000 -0.9406 -0.3395
vn 0.0000 -0.9368 0.3500
vn 0.0000 -0.9519 0.3064
# 26 vertex normals

vt 1.9866 0.6886 0.0000
vt -0.0029 0.6886 0.0000
vt -0.0029 0.8336 0.0000
vt 1.9866 0.8336 0.0000
vt 0.3024 0.4950 0.0000
vt 0.3024 0.2381 0.0000
vt 0.0549 0.0841 0.0000
vt 0.4299 0.0841 0.0000
vt 0.4299 0.0000 0.0000
vt 0.0000 0.0000 0.0000
vt 0.3108 0.3605 0.0000
vt 0.3108 0.2381 0.0000
vt 0.3108 0.4583 0.0000
vt 0.6269 0.4950 0.0000
vt 0.6269 0.2381 0.0000
vt 0.5792 0.3605 0.0000
vt 0.5792 0.2381 0.0000
vt 0.6185 0.2381 0.0000
vt 0.6185 0.4583 0.0000
vt 0.8091 0.0775 0.0000
vt 0.9397 0.0459 0.0000
vt 0.9397 0.2224 0.0000
vt 0.8091 0.1909 0.0000
vt 0.2349 0.0661 0.0000
vt 0.2060 0.0951 0.0000
vt 0.2889 0.1780 0.0000
vt 0.3178 0.1490 0.0000
vt 0.1138 0.1873 0.0000
vt 0.0848 0.2163 0.0000
vt 0.1677 0.2992 0.0000
vt 0.1966 0.2702 0.0000
vt 0.2692 0.4564 0.0000
vt 0.2692 0.2381 0.0000
vt 0.2722 0.3274 0.0000
vt 0.2722 0.2381 0.0000
vt 0.3186 0.2381 0.0000
vt 0.3186 0.3274 0.0000
vt 0.2616 0.3856 0.0000
vt 0.2616 0.2381 0.0000
vt 0.2774 0.2381 0.0000
vt 0.2774 0.3856 0.0000
vt 0.2958 0.3502 0.0000
vt 0.2958 0.2381 0.0000
vt 0.3164 0.3502 0.0000
vt 0.3164 0.2381 0.0000
vt 0.2324 0.4564 0.0000
vt 0.2324 0.2381 0.0000
vt 0.2324 0.4106 0.0000
vt 0.2370 0.2381 0.0000
vt 0.2370 0.4106 0.0000
vt 0.8005 0.2898 0.0000
vt 0.9713 0.2898 0.0000
vt 0.8005 0.4147 0.0000
vt 0.9713 0.4147 0.0000
# 54 texture coords

g cargo01_obj
usemtl Material__215
s 32
f 1/1/1 2/2/1 3/3/1 4/4/1 
s 64
f 2/5/2 5/6/2 6/6/2 3/5/2 
s 32
f 7/7/3 8/8/3 9/9/3 10/10/3 
s 64
f 8/11/2 11/12/2 12/12/2 9/13/2 
s 2
f 5/6/4 2/5/4 1/14/4 13/15/4 
s 4
f 14/15/5 4/14/5 3/5/5 6/6/5 
s 16
f 13/15/6 1/14/6 4/14/6 14/15/6 
s 2
f 11/12/4 8/11/4 7/16/4 15/17/4 
s 4
f 16/18/5 10/19/5 9/13/5 12/12/5 
s 16
f 15/17/7 7/16/7 10/19/7 16/18/7 
s 64
f 17/20/2 18/21/2 19/22/2 20/23/2 
s off
f 21/24/8 22/25/8 23/26/8 24/27/8 
f 25/28/9 26/29/9 27/30/9 28/31/9 
f 22/25/1 25/28/1 28/31/1 23/26/1 
f 28/32/6 27/33/6 24/33/6 23/32/6 
f 29/34/10 30/35/10 31/36/10 32/37/10 
f 33/34/1 29/34/1 32/37/1 34/37/1 
f 35/38/11 36/39/11 37/40/11 38/41/11 
f 39/38/1 35/38/1 38/41/1 40/41/1 
s 64
f 41/42/2 42/43/2 43/43/2 44/42/2 
s off
f 42/43/4 41/42/4 45/44/4 46/45/4 
f 44/42/5 43/43/5 47/45/5 48/44/5 
f 41/42/1 44/42/1 48/44/1 45/44/1 
f 22/46/2 21/47/2 49/47/2 50/48/2 
f 26/47/2 25/46/2 51/48/2 52/47/2 
f 25/46/2 22/46/2 50/48/2 51/48/2 
f 50/48/12 49/47/12 18/49/12 17/50/12 
f 52/47/13 51/48/13 20/50/13 19/49/13 
f 51/48/14 50/48/14 17/50/14 20/50/14 
f 53/51/15 54/52/15 55/52/15 56/51/15 
f 57/53/1 53/51/1 56/51/1 58/53/1 
f 59/35/16 33/34/16 34/37/16 60/36/16 
f 61/39/17 39/38/17 40/41/17 62/40/17 
f 62/40/6 40/41/6 38/41/6 37/40/6 
s 16
f 54/52/6 53/51/6 57/53/6 63/54/6 
s off
f 63/54/5 57/53/5 58/53/5 64/54/5 
s 32
f 65/1/14 66/4/14 67/3/14 68/2/14 
s 64
f 68/5/2 67/5/2 6/6/2 5/6/2 
s 32
f 69/7/18 70/10/18 71/9/18 72/8/18 
s 64
f 72/11/2 71/13/2 12/12/2 11/12/2 
s 2
f 5/6/4 13/15/4 65/14/4 68/5/4 
s 4
f 14/15/5 6/6/5 67/5/5 66/14/5 
s 16
f 13/15/6 14/15/6 66/14/6 65/14/6 
s 2
f 11/12/4 15/17/4 69/16/4 72/11/4 
s 4
f 16/18/5 12/12/5 71/13/5 70/19/5 
s 16
f 15/17/7 16/18/7 70/19/7 69/16/7 
s 64
f 73/20/2 74/23/2 19/22/2 18/21/2 
s off
f 21/24/19 24/27/19 75/26/19 76/25/19 
f 77/28/20 78/31/20 27/30/20 26/29/20 
f 76/25/14 75/26/14 78/31/14 77/28/14 
f 78/32/6 75/32/6 24/33/6 27/33/6 
f 79/34/21 80/37/21 31/36/21 30/35/21 
f 81/34/14 82/37/14 80/37/14 79/34/14 
f 83/38/22 84/41/22 37/40/22 36/39/22 
f 85/38/14 86/41/14 84/41/14 83/38/14 
s 64
f 87/42/2 88/42/2 43/43/2 42/43/2 
s off
f 42/43/4 46/45/4 89/44/4 87/42/4 
f 88/42/5 90/44/5 47/45/5 43/43/5 
f 87/42/14 89/44/14 90/44/14 88/42/14 
f 76/46/2 91/48/2 49/47/2 21/47/2 
f 26/47/2 52/47/2 92/48/2 77/46/2 
f 77/46/2 92/48/2 91/48/2 76/46/2 
f 91/48/23 73/50/23 18/49/23 49/47/23 
f 52/47/24 19/49/24 74/50/24 92/48/24 
f 92/48/1 74/50/1 73/50/1 91/48/1 
f 93/51/4 94/51/4 55/52/4 54/52/4 
f 95/53/14 96/53/14 94/51/14 93/51/14 
f 59/35/25 60/36/25 82/37/25 81/34/25 
f 61/39/26 62/40/26 86/41/26 85/38/26 
f 62/40/6 37/40/6 84/41/6 86/41/6 
s 16
f 54/52/6 63/54/6 95/53/6 93/51/6 
s off
f 63/54/5 64/54/5 96/53/5 95/53/5 
# 72 polygons

