# 3ds Max Wavefront OBJ Exporter v0.97b - (c)2007 guruware
# File Created: 05.12.2017 01:10:42

#
# object mine_obj
#

v  67.1941 260.8381 -0.0000
v  58.1918 260.8381 -33.5971
v  49.7278 296.1872 -28.7104
v  57.4207 296.1872 -0.0000
v  33.5970 260.8381 -58.1918
v  28.7103 296.1872 -49.7278
v  -0.0000 260.8381 -67.1941
v  -0.0000 296.1872 -57.4207
v  -33.5971 260.8381 -58.1918
v  -28.7104 296.1872 -49.7278
v  -58.1918 260.8381 -33.5971
v  -49.7278 296.1872 -28.7104
v  -67.1941 260.8381 -0.0000
v  -57.4207 296.1872 -0.0000
v  -58.1918 260.8381 33.5970
v  -49.7278 296.1872 28.7103
v  -33.5971 260.8381 58.1918
v  -28.7104 296.1872 49.7278
v  -0.0000 260.8381 67.1941
v  -0.0000 296.1872 57.4207
v  33.5970 260.8381 58.1918
v  28.7103 296.1872 49.7278
v  58.1918 260.8381 33.5971
v  49.7278 296.1872 28.7104
v  31.9436 296.1872 -18.4426
v  36.8853 296.1872 -0.0000
v  18.4426 296.1872 -31.9436
v  -0.0000 296.1872 -36.8853
v  -18.4426 296.1872 -31.9436
v  -31.9436 296.1872 -18.4426
v  -36.8853 296.1872 -0.0000
v  -31.9436 296.1872 18.4426
v  -18.4427 296.1872 31.9436
v  -0.0000 296.1872 36.8853
v  18.4426 296.1872 31.9436
v  31.9436 296.1872 18.4427
v  31.9436 285.0085 -18.4426
v  36.8853 285.0085 -0.0000
v  18.4426 285.0085 -31.9436
v  -0.0000 285.0085 -36.8853
v  -18.4426 285.0085 -31.9436
v  -31.9436 285.0085 -18.4426
v  -36.8853 285.0085 -0.0000
v  -31.9436 285.0085 18.4426
v  -18.4427 285.0085 31.9436
v  -0.0000 285.0085 36.8853
v  18.4426 285.0085 31.9436
v  31.9436 285.0085 18.4427
v  29.4003 285.0085 -16.9743
v  33.9486 285.0085 -0.0000
v  16.9743 285.0085 -29.4003
v  -0.0000 285.0085 -33.9486
v  -16.9743 285.0085 -29.4003
v  -29.4003 285.0085 -16.9743
v  -33.9486 285.0085 -0.0000
v  -29.4003 285.0085 16.9743
v  -16.9743 285.0085 29.4003
v  -0.0000 285.0085 33.9486
v  16.9743 285.0085 29.4003
v  29.4003 285.0085 16.9743
v  29.4003 288.6783 -16.9743
v  33.9486 288.6783 -0.0000
v  16.9743 288.6783 -29.4003
v  -0.0000 288.6783 -33.9486
v  -16.9743 288.6783 -29.4003
v  -29.4003 288.6783 -16.9743
v  -33.9486 288.6783 -0.0000
v  -29.4003 288.6783 16.9743
v  -16.9743 288.6783 29.4003
v  -0.0000 288.6783 33.9486
v  16.9743 288.6783 29.4003
v  29.4003 288.6783 16.9743
v  17.2462 288.6783 -9.9571
v  19.9142 288.6783 -0.0000
v  9.9571 288.6783 -17.2462
v  -0.0000 288.6783 -19.9142
v  -9.9571 288.6783 -17.2462
v  -17.2462 288.6783 -9.9571
v  -19.9142 288.6783 -0.0000
v  -17.2462 288.6783 9.9571
v  -9.9571 288.6783 17.2462
v  -0.0000 288.6783 19.9142
v  9.9571 288.6783 17.2462
v  17.2462 288.6783 9.9571
v  14.3946 278.5354 -8.3107
v  16.6215 278.5354 -0.0000
v  8.3107 278.5354 -14.3946
v  -0.0000 278.5354 -16.6215
v  -8.3107 278.5354 -14.3946
v  -14.3946 278.5354 -8.3107
v  -16.6215 278.5354 -0.0000
v  -14.3946 278.5354 8.3107
v  -8.3107 278.5354 14.3946
v  -0.0000 278.5354 16.6215
v  8.3107 278.5354 14.3946
v  14.3946 278.5354 8.3107
# 96 vertices

vn 0.9638 0.2665 0.0000
vn 0.8347 0.2665 -0.4819
vn 0.4819 0.2665 -0.8347
vn -0.0000 0.2665 -0.9638
vn -0.4819 0.2665 -0.8347
vn -0.8347 0.2665 -0.4819
vn -0.9638 0.2665 -0.0000
vn -0.8347 0.2665 0.4819
vn -0.4819 0.2665 0.8347
vn -0.0000 0.2665 0.9638
vn 0.4819 0.2665 0.8347
vn 0.8347 0.2665 0.4819
vn 0.0000 1.0000 -0.0000
vn -0.9659 0.0000 0.2588
vn -0.7071 0.0000 0.7071
vn -0.2588 0.0000 0.9659
vn 0.2588 0.0000 0.9659
vn 0.7071 0.0000 0.7071
vn 0.9659 0.0000 0.2588
vn 0.9659 0.0000 -0.2588
vn 0.7071 0.0000 -0.7071
vn 0.2588 0.0000 -0.9659
vn -0.2588 0.0000 -0.9659
vn -0.7071 0.0000 -0.7071
vn -0.9659 0.0000 -0.2588
vn -0.9217 0.2992 0.2470
vn -0.6747 0.2992 0.6747
vn -0.2470 0.2992 0.9217
vn 0.2470 0.2992 0.9217
vn 0.6747 0.2992 0.6747
vn 0.9217 0.2992 0.2470
vn 0.9217 0.2992 -0.2470
vn 0.6747 0.2992 -0.6747
vn 0.2470 0.2992 -0.9217
vn -0.2470 0.2992 -0.9217
vn -0.6747 0.2992 -0.6747
vn -0.9217 0.2992 -0.2470
# 37 vertex normals

vt 0.0124 0.4575 0.5000
vt 0.0923 0.4575 0.5000
vt 0.0923 0.9711 0.4273
vt 0.0124 0.9711 0.4273
vt 0.1722 0.4575 0.5000
vt 0.1722 0.9711 0.4273
vt 0.2521 0.4575 0.5000
vt 0.2521 0.9711 0.4273
vt 0.3320 0.4575 0.5000
vt 0.3320 0.9711 0.4273
vt 0.4119 0.4575 0.5000
vt 0.4119 0.9711 0.4273
vt 0.4918 0.4575 0.5000
vt 0.4918 0.9711 0.4273
vt 0.5717 0.4575 0.5000
vt 0.5717 0.9711 0.4273
vt 0.6516 0.4575 0.5000
vt 0.6516 0.9711 0.4273
vt 0.7315 0.4575 0.5000
vt 0.7315 0.9711 0.4273
vt 0.8114 0.4575 0.5000
vt 0.8114 0.9711 0.4273
vt 0.8913 0.4575 0.5000
vt 0.8913 0.9711 0.4273
vt 0.9711 0.4575 0.5000
vt 0.9711 0.9711 0.4273
vt 0.6486 0.3248 0.0000
vt 0.6235 0.4187 0.0000
vt 0.5653 0.3851 0.0000
vt 0.5815 0.3248 0.0000
vt 0.5547 0.4874 0.0000
vt 0.5212 0.4293 0.0000
vt 0.4608 0.5126 0.0000
vt 0.4608 0.4455 0.0000
vt 0.3670 0.4874 0.0000
vt 0.4005 0.4293 0.0000
vt 0.2982 0.4187 0.0000
vt 0.3564 0.3851 0.0000
vt 0.2731 0.3248 0.0000
vt 0.3402 0.3248 0.0000
vt 0.2982 0.2309 0.0000
vt 0.3564 0.2645 0.0000
vt 0.3670 0.1622 0.0000
vt 0.4005 0.2204 0.0000
vt 0.4608 0.1371 0.0000
vt 0.4608 0.2042 0.0000
vt 0.5547 0.1622 0.0000
vt 0.5212 0.2204 0.0000
vt 0.6235 0.2309 0.0000
vt 0.5653 0.2645 0.0000
vt 0.5570 0.3803 0.0000
vt 0.5719 0.3248 0.0000
vt 0.5164 0.4210 0.0000
vt 0.4608 0.4358 0.0000
vt 0.4053 0.4210 0.0000
vt 0.3647 0.3803 0.0000
vt 0.3498 0.3248 0.0000
vt 0.3647 0.2693 0.0000
vt 0.4053 0.2287 0.0000
vt 0.4608 0.2138 0.0000
vt 0.5164 0.2287 0.0000
vt 0.5570 0.2693 0.0000
vt 0.5172 0.3574 0.0000
vt 0.5260 0.3248 0.0000
vt 0.4934 0.3812 0.0000
vt 0.4608 0.3900 0.0000
vt 0.4283 0.3812 0.0000
vt 0.4044 0.3574 0.0000
vt 0.3957 0.3248 0.0000
vt 0.4044 0.2923 0.0000
vt 0.4283 0.2684 0.0000
vt 0.4608 0.2597 0.0000
vt 0.4934 0.2684 0.0000
vt 0.5172 0.2923 0.0000
vt 0.5079 0.3520 0.0000
vt 0.5152 0.3248 0.0000
vt 0.4880 0.3719 0.0000
vt 0.4608 0.3792 0.0000
vt 0.4337 0.3719 0.0000
vt 0.4138 0.3520 0.0000
vt 0.4065 0.3248 0.0000
vt 0.4138 0.2977 0.0000
vt 0.4337 0.2778 0.0000
vt 0.4608 0.2705 0.0000
vt 0.4880 0.2778 0.0000
vt 0.5079 0.2977 0.0000
vt 0.9863 0.1534 0.0000
vt 0.9489 0.1908 0.0000
vt 0.8977 0.2045 0.0000
vt 0.8466 0.1908 0.0000
vt 0.8092 0.1534 0.0000
vt 0.7955 0.1023 0.0000
vt 0.8092 0.0511 0.0000
vt 0.8466 0.0137 0.0000
vt 0.8977 -0.0000 0.0000
vt 0.9489 0.0137 0.0000
vt 0.9863 0.0511 0.0000
vt 1.0000 0.1023 0.0000
# 98 texture coords

g mine_obj
s 8
f 1/1/1 2/2/2 3/3/2 4/4/1 
f 2/2/2 5/5/3 6/6/3 3/3/2 
f 5/5/3 7/7/4 8/8/4 6/6/3 
f 7/7/4 9/9/5 10/10/5 8/8/4 
f 9/9/5 11/11/6 12/12/6 10/10/5 
f 11/11/6 13/13/7 14/14/7 12/12/6 
f 13/13/7 15/15/8 16/16/8 14/14/7 
f 15/15/8 17/17/9 18/18/9 16/16/8 
f 17/17/9 19/19/10 20/20/10 18/18/9 
f 19/19/10 21/21/11 22/22/11 20/20/10 
f 21/21/11 23/23/12 24/24/12 22/22/11 
f 23/23/12 1/25/1 4/26/1 24/24/12 
s off
f 4/27/13 3/28/13 25/29/13 26/30/13 
f 3/28/13 6/31/13 27/32/13 25/29/13 
f 6/31/13 8/33/13 28/34/13 27/32/13 
f 8/33/13 10/35/13 29/36/13 28/34/13 
f 10/35/13 12/37/13 30/38/13 29/36/13 
f 12/37/13 14/39/13 31/40/13 30/38/13 
f 14/39/13 16/41/13 32/42/13 31/40/13 
f 16/41/13 18/43/13 33/44/13 32/42/13 
f 18/43/13 20/45/13 34/46/13 33/44/13 
f 20/45/13 22/47/13 35/48/13 34/46/13 
f 22/47/13 24/49/13 36/50/13 35/48/13 
f 24/49/13 4/27/13 26/30/13 36/50/13 
f 26/30/14 25/29/14 37/29/14 38/30/14 
f 25/29/15 27/32/15 39/32/15 37/29/15 
f 27/32/16 28/34/16 40/34/16 39/32/16 
f 28/34/17 29/36/17 41/36/17 40/34/17 
f 29/36/18 30/38/18 42/38/18 41/36/18 
f 30/38/19 31/40/19 43/40/19 42/38/19 
f 31/40/20 32/42/20 44/42/20 43/40/20 
f 32/42/21 33/44/21 45/44/21 44/42/21 
f 33/44/22 34/46/22 46/46/22 45/44/22 
f 34/46/23 35/48/23 47/48/23 46/46/23 
f 35/48/24 36/50/24 48/50/24 47/48/24 
f 36/50/25 26/30/25 38/30/25 48/50/25 
f 38/30/13 37/29/13 49/51/13 50/52/13 
f 37/29/13 39/32/13 51/53/13 49/51/13 
f 39/32/13 40/34/13 52/54/13 51/53/13 
f 40/34/13 41/36/13 53/55/13 52/54/13 
f 41/36/13 42/38/13 54/56/13 53/55/13 
f 42/38/13 43/40/13 55/57/13 54/56/13 
f 43/40/13 44/42/13 56/58/13 55/57/13 
f 44/42/13 45/44/13 57/59/13 56/58/13 
f 45/44/13 46/46/13 58/60/13 57/59/13 
f 46/46/13 47/48/13 59/61/13 58/60/13 
f 47/48/13 48/50/13 60/62/13 59/61/13 
f 48/50/13 38/30/13 50/52/13 60/62/13 
f 50/52/20 49/51/20 61/51/20 62/52/20 
f 49/51/21 51/53/21 63/53/21 61/51/21 
f 51/53/22 52/54/22 64/54/22 63/53/22 
f 52/54/23 53/55/23 65/55/23 64/54/23 
f 53/55/24 54/56/24 66/56/24 65/55/24 
f 54/56/25 55/57/25 67/57/25 66/56/25 
f 55/57/14 56/58/14 68/58/14 67/57/14 
f 56/58/15 57/59/15 69/59/15 68/58/15 
f 57/59/16 58/60/16 70/60/16 69/59/16 
f 58/60/17 59/61/17 71/61/17 70/60/17 
f 59/61/18 60/62/18 72/62/18 71/61/18 
f 60/62/19 50/52/19 62/52/19 72/62/19 
f 62/52/13 61/51/13 73/63/13 74/64/13 
f 61/51/13 63/53/13 75/65/13 73/63/13 
f 63/53/13 64/54/13 76/66/13 75/65/13 
f 64/54/13 65/55/13 77/67/13 76/66/13 
f 65/55/13 66/56/13 78/68/13 77/67/13 
f 66/56/13 67/57/13 79/69/13 78/68/13 
f 67/57/13 68/58/13 80/70/13 79/69/13 
f 68/58/13 69/59/13 81/71/13 80/70/13 
f 69/59/13 70/60/13 82/72/13 81/71/13 
f 70/60/13 71/61/13 83/73/13 82/72/13 
f 71/61/13 72/62/13 84/74/13 83/73/13 
f 72/62/13 62/52/13 74/64/13 84/74/13 
f 74/64/26 73/63/26 85/75/26 86/76/26 
f 73/63/27 75/65/27 87/77/27 85/75/27 
f 75/65/28 76/66/28 88/78/28 87/77/28 
f 76/66/29 77/67/29 89/79/29 88/78/29 
f 77/67/30 78/68/30 90/80/30 89/79/30 
f 78/68/31 79/69/31 91/81/31 90/80/31 
f 79/69/32 80/70/32 92/82/32 91/81/32 
f 80/70/33 81/71/33 93/83/33 92/82/33 
f 81/71/34 82/72/34 94/84/34 93/83/34 
f 82/72/35 83/73/35 95/85/35 94/84/35 
f 83/73/36 84/74/36 96/86/36 95/85/36 
f 84/74/37 74/64/37 86/76/37 96/86/37 
f 85/87/13 87/88/13 88/89/13 89/90/13 90/91/13 91/92/13 92/93/13 93/94/13 94/95/13 95/96/13 96/97/13 86/98/13 
# 85 polygons

