# 3ds Max Wavefront OBJ Exporter v0.97b - (c)2007 guruware
# File Created: 05.12.2017 01:10:14

#
# object sat_obj
#

v  0.0000 31.3119 -0.0000
v  28.0062 14.0031 -0.0000
v  8.6544 14.0031 -26.6355
v  -22.6575 14.0031 -16.4616
v  -22.6575 14.0031 16.4617
v  8.6544 14.0031 26.6355
v  22.6575 -14.0031 16.4617
v  22.6575 -14.0031 -16.4616
v  -8.6544 -14.0031 -26.6355
v  -28.0062 -14.0031 0.0000
v  -8.6544 -14.0031 26.6355
v  0.0000 -31.3119 -0.0000
v  -0.0000 0.0000 -60.0000
v  -0.0000 1.0000 -60.0000
v  51.9615 1.0000 -30.0000
v  51.9615 0.0000 -30.0000
v  -0.0000 1.0000 -40.0000
v  34.6410 1.0000 -20.0000
v  -0.0000 0.0000 -40.0000
v  34.6410 0.0000 -20.0000
v  51.9615 1.0000 30.0000
v  51.9615 0.0000 30.0000
v  34.6410 1.0000 20.0000
v  34.6410 0.0000 20.0000
v  -0.0000 1.0000 60.0000
v  -0.0000 0.0000 60.0000
v  -0.0000 1.0000 40.0000
v  -0.0000 0.0000 40.0000
v  -51.9615 1.0000 30.0000
v  -51.9615 0.0000 30.0000
v  -34.6410 1.0000 20.0000
v  -34.6410 0.0000 20.0000
v  -51.9615 1.0000 -30.0000
v  -51.9615 0.0000 -30.0000
v  -34.6410 1.0000 -20.0000
v  -34.6410 0.0000 -20.0000
# 36 vertices

vn 0.0000 1.0000 -0.0000
vn 0.8944 0.4472 -0.0000
vn 0.2764 0.4472 -0.8507
vn -0.7236 0.4472 -0.5257
vn -0.7236 0.4472 0.5257
vn 0.2764 0.4472 0.8507
vn 0.7236 -0.4472 0.5257
vn 0.7236 -0.4472 -0.5257
vn -0.2764 -0.4472 -0.8507
vn -0.8944 -0.4472 0.0000
vn -0.2764 -0.4472 0.8507
vn -0.0000 -1.0000 -0.0000
vn -0.0000 0.0000 -1.0000
vn 0.8660 0.0000 -0.5000
vn 0.0000 0.0000 1.0000
vn -0.8660 0.0000 0.5000
vn 0.0000 -1.0000 -0.0000
vn 0.8660 0.0000 0.5000
vn -0.8660 0.0000 -0.5000
vn 0.0000 0.0000 -1.0000
# 20 vertex normals

vt 0.3580 0.2429 31.3119
vt 0.2806 0.1797 31.3119
vt 0.3327 0.1276 31.3119
vt 0.3912 0.2097 31.3119
vt 0.3848 0.0754 31.3119
vt 0.2585 0.3425 31.3119
vt 0.1242 0.3360 31.3119
vt 0.1763 0.2839 31.3119
vt 0.2917 0.3093 31.3119
vt 0.2284 0.2318 31.3119
vt 0.3249 0.2761 31.3119
vt 0.1638 0.1151 31.3119
vt 0.2159 0.0629 31.3119
vt 0.2680 0.0108 31.3119
vt 0.0074 0.2714 31.3119
vt 0.0596 0.2193 31.3119
vt 0.1117 0.1672 31.3119
vt 0.1671 0.0236 31.3119
vt 0.0293 0.1615 31.3119
vt 0.0637 0.1270 31.3119
vt 0.0982 0.0926 31.3119
vt 0.1327 0.0581 31.3119
vt 0.3425 1.0017 0.5000
vt 0.3425 1.0018 0.5000
vt 0.0017 1.0018 0.5178
vt 0.0017 1.0017 0.5178
vt 0.3425 0.5356 0.3333
vt 0.0017 0.5356 0.3452
vt 0.3425 0.5364 0.3333
vt 0.0017 0.5364 0.3452
vt 2.0086 1.0017 0.5178
vt 2.0086 1.0018 0.5178
vt 1.6867 1.0018 0.5178
vt 1.6867 1.0017 0.5178
vt 2.0086 0.5356 0.3452
vt 1.6867 0.5356 0.3452
vt 2.0086 0.5364 0.3452
vt 1.6867 0.5364 0.3452
vt 1.3459 1.0018 0.5000
vt 1.3459 1.0017 0.5000
vt 1.3459 0.5356 0.3333
vt 1.3459 0.5364 0.3333
vt 1.0052 1.0018 0.5178
vt 1.0052 1.0017 0.5178
vt 1.0052 0.5356 0.3452
vt 1.0052 0.5364 0.3452
vt 0.6833 1.0018 0.5178
vt 0.6833 1.0017 0.5178
vt 0.6833 0.5356 0.3452
vt 0.6833 0.5364 0.3452
# 50 texture coords

g sat_obj
s 1
f 1/1/1 2/2/2 3/3/3 
f 1/4/1 3/3/3 4/5/4 
f 1/6/1 4/7/4 5/8/5 
f 1/9/1 5/8/5 6/10/6 
f 1/11/1 6/10/6 2/2/2 
f 2/2/2 7/12/7 8/13/8 
f 3/3/3 8/13/8 9/14/9 
f 4/7/4 9/15/9 10/16/10 
f 5/8/5 10/16/10 11/17/11 
f 6/10/6 11/17/11 7/12/7 
f 8/13/8 3/3/3 2/2/2 
f 9/14/9 4/5/4 3/3/3 
f 10/16/10 5/8/5 4/7/4 
f 11/17/11 6/10/6 5/8/5 
f 7/12/7 2/2/2 6/10/6 
f 12/18/12 9/14/9 8/13/8 
f 12/19/12 10/16/10 9/15/9 
f 12/20/12 11/17/11 10/16/10 
f 12/21/12 7/12/7 11/17/11 
f 12/22/12 8/13/8 7/12/7 
s 2
f 13/23/13 14/24/13 15/25/14 16/26/14 
s 4
f 14/24/1 17/27/1 18/28/1 15/25/1 
s 2
f 17/27/15 19/29/15 20/30/16 18/28/16 
s 4
f 19/29/17 13/23/17 16/26/17 20/30/17 
s 2
f 16/31/14 15/32/14 21/33/18 22/34/18 
s 4
f 15/32/1 18/35/1 23/36/1 21/33/1 
s 2
f 18/35/16 20/37/16 24/38/19 23/36/19 
s 4
f 20/37/17 16/31/17 22/34/17 24/38/17 
s 2
f 22/34/18 21/33/18 25/39/15 26/40/15 
s 4
f 21/33/1 23/36/1 27/41/1 25/39/1 
s 2
f 23/36/19 24/38/19 28/42/20 27/41/20 
s 4
f 24/38/17 22/34/17 26/40/17 28/42/17 
s 2
f 26/40/15 25/39/15 29/43/16 30/44/16 
s 4
f 25/39/1 27/41/1 31/45/1 29/43/1 
s 2
f 27/41/20 28/42/20 32/46/14 31/45/14 
s 4
f 28/42/17 26/40/17 30/44/17 32/46/17 
s 2
f 30/44/16 29/43/16 33/47/19 34/48/19 
s 4
f 29/43/1 31/45/1 35/49/1 33/47/1 
s 2
f 31/45/14 32/46/14 36/50/18 35/49/18 
s 4
f 32/46/17 30/44/17 34/48/17 36/50/17 
s 2
f 34/48/19 33/47/19 14/24/13 13/23/13 
s 4
f 33/47/1 35/49/1 17/27/1 14/24/1 
s 2
f 35/49/18 36/50/18 19/29/15 17/27/15 
s 4
f 36/50/17 34/48/17 13/23/17 19/29/17 
# 24 polygons - 20 triangles

