# 3ds Max Wavefront OBJ Exporter v0.97b - (c)2007 guruware
# File Created: 05.12.2017 00:52:37

#
# object transport_obj
#

v  -52.1275 -5.0285 -0.0000
v  -6.0068 -5.0285 -0.0000
v  -6.0068 -5.0285 19.2273
v  -48.5566 -5.0285 19.2273
v  -6.0068 5.9652 12.1768
v  -6.0068 8.2010 -0.0000
v  -45.2323 8.2010 -0.0000
v  -41.6614 5.9652 12.1768
v  84.3961 -5.0285 -0.0000
v  67.0721 8.2010 -0.0000
v  57.5323 5.9652 12.1768
v  67.5968 -5.0285 19.2273
v  -40.0820 1.0432 23.3164
v  -16.3258 1.0432 23.3164
v  -44.2917 -5.0285 27.2732
v  -16.3258 -5.0285 27.2732
v  -42.5557 -1.9844 35.6241
v  -22.0074 -1.9844 35.6241
v  -44.2917 -5.0285 37.6780
v  -22.0074 -5.0285 37.6780
v  -50.2193 -7.0995 36.0000
v  -50.2193 -5.9279 33.1716
v  -17.1798 -5.9279 33.1716
v  -17.1798 -7.0995 36.0000
v  -50.2193 -3.0995 32.0000
v  -17.1798 -3.0995 32.0000
v  -50.2193 -0.2711 33.1716
v  -17.1798 -0.2711 33.1716
v  -50.2193 0.9005 36.0000
v  -17.1798 0.9005 36.0000
v  -50.2193 -0.2711 38.8284
v  -17.1798 -0.2711 38.8284
v  -50.2193 -3.0995 40.0000
v  -17.1798 -3.0995 40.0000
v  -50.2193 -5.9279 38.8284
v  -17.1798 -5.9279 38.8284
v  -14.8762 -5.0458 34.0537
v  -14.8762 -5.8519 36.0000
v  -14.8762 -3.0995 33.2476
v  -14.8762 -1.1533 34.0537
v  -14.8762 -0.3471 36.0000
v  -14.8762 -1.1533 37.9463
v  -14.8762 -3.0995 38.7524
v  -14.8762 -5.0458 37.9463
v  -14.8762 -4.5636 34.5359
v  -14.8762 -5.1701 36.0000
v  -14.8762 -3.0995 33.9294
v  -14.8762 -1.6354 34.5359
v  -14.8762 -1.0289 36.0000
v  -14.8762 -1.6354 37.4641
v  -14.8762 -3.0995 38.0706
v  -14.8762 -4.5636 37.4641
v  -19.5331 -4.5636 34.5359
v  -19.5331 -5.1701 36.0000
v  -19.5331 -3.0995 33.9294
v  -19.5331 -1.6354 34.5359
v  -19.5331 -1.0289 36.0000
v  -19.5331 -1.6354 37.4641
v  -19.5331 -3.0995 38.0706
v  -19.5331 -4.5636 37.4641
v  -54.0926 -8.2010 36.0000
v  -54.0926 -6.7068 32.3927
v  -54.0926 -3.0995 30.8985
v  -54.0926 0.5078 32.3927
v  -54.0926 2.0019 36.0000
v  -54.0926 0.5078 39.6073
v  -54.0926 -3.0995 41.1015
v  -54.0926 -6.7068 39.6073
v  -57.2900 -8.2010 36.0000
v  -57.2900 -6.7068 32.3927
v  -57.2900 -3.0995 30.8985
v  -57.2900 0.5078 32.3927
v  -57.2900 2.0019 36.0000
v  -57.2900 0.5078 39.6073
v  -57.2900 -3.0995 41.1015
v  -57.2900 -6.7068 39.6073
v  -57.6707 -6.9406 36.0000
v  -57.6707 -5.8156 33.2840
v  -57.6707 -3.0995 32.1590
v  -57.6707 -0.3835 33.2840
v  -57.6707 0.7415 36.0000
v  -57.6707 -0.3835 38.7160
v  -57.6707 -3.0995 39.8410
v  -57.6707 -5.8156 38.7160
v  -61.7952 -6.9406 36.0000
v  -61.7952 -5.8156 33.2840
v  -61.7952 -3.0995 32.1590
v  -61.7952 -0.3835 33.2840
v  -61.7952 0.7415 36.0000
v  -61.7952 -0.3835 38.7160
v  -61.7952 -3.0995 39.8410
v  -61.7952 -5.8156 38.7160
v  -61.7952 -5.9381 36.0000
v  -61.7952 -5.1067 33.9928
v  -61.7952 -3.0995 33.1615
v  -61.7952 -1.0924 33.9928
v  -61.7952 -0.2610 36.0000
v  -61.7952 -1.0924 38.0072
v  -61.7952 -3.0995 38.8385
v  -61.7952 -5.1067 38.0072
v  -57.7078 -5.9381 36.0000
v  -57.7078 -5.1067 33.9928
v  -57.7078 -3.0995 33.1615
v  -57.7078 -1.0924 33.9928
v  -57.7078 -0.2610 36.0000
v  -57.7078 -1.0924 38.0072
v  -57.7078 -3.0995 38.8385
v  -57.7078 -5.1067 38.0072
v  74.7032 2.6985 -0.0000
v  72.6951 4.2319 -0.0000
v  67.5424 3.0765 7.6086
v  68.6794 1.7289 8.4010
v  67.7495 1.7289 8.4010
v  73.1878 2.6985 -0.0000
v  71.1797 4.2319 -0.0000
v  66.6126 3.0765 7.6086
v  -48.5566 -5.0285 -19.2273
v  -6.0068 -5.0285 -19.2273
v  -6.0068 5.9652 -12.1768
v  -41.6614 5.9652 -12.1768
v  67.5968 -5.0285 -19.2273
v  57.5323 5.9652 -12.1768
v  -16.3258 1.0432 -23.3164
v  -40.0820 1.0432 -23.3164
v  -44.2917 -5.0285 -27.2732
v  -16.3258 -5.0285 -27.2732
v  -22.0074 -1.9844 -35.6241
v  -42.5557 -1.9844 -35.6241
v  -44.2917 -5.0285 -37.6780
v  -22.0074 -5.0285 -37.6780
v  -50.2193 -7.0995 -36.0000
v  -17.1798 -7.0995 -36.0000
v  -17.1798 -5.9279 -33.1716
v  -50.2193 -5.9279 -33.1716
v  -17.1798 -3.0995 -32.0000
v  -50.2193 -3.0995 -32.0000
v  -17.1798 -0.2711 -33.1716
v  -50.2193 -0.2711 -33.1716
v  -17.1798 0.9005 -36.0000
v  -50.2193 0.9005 -36.0000
v  -17.1798 -0.2711 -38.8284
v  -50.2193 -0.2711 -38.8284
v  -17.1798 -3.0995 -40.0000
v  -50.2193 -3.0995 -40.0000
v  -17.1798 -5.9279 -38.8284
v  -50.2193 -5.9279 -38.8284
v  -14.8762 -5.8519 -36.0000
v  -14.8762 -5.0458 -34.0537
v  -14.8762 -3.0995 -33.2476
v  -14.8762 -1.1533 -34.0537
v  -14.8762 -0.3471 -36.0000
v  -14.8762 -1.1533 -37.9463
v  -14.8762 -3.0995 -38.7524
v  -14.8762 -5.0458 -37.9463
v  -14.8762 -5.1701 -36.0000
v  -14.8762 -4.5636 -34.5359
v  -14.8762 -3.0995 -33.9294
v  -14.8762 -1.6354 -34.5359
v  -14.8762 -1.0289 -36.0000
v  -14.8762 -1.6354 -37.4641
v  -14.8762 -3.0995 -38.0706
v  -14.8762 -4.5636 -37.4641
v  -19.5331 -5.1701 -36.0000
v  -19.5331 -4.5636 -34.5359
v  -19.5331 -3.0995 -33.9294
v  -19.5331 -1.6354 -34.5359
v  -19.5331 -1.0289 -36.0000
v  -19.5331 -1.6354 -37.4641
v  -19.5331 -3.0995 -38.0706
v  -19.5331 -4.5636 -37.4641
v  -54.0926 -6.7068 -32.3927
v  -54.0926 -8.2010 -36.0000
v  -54.0926 -3.0995 -30.8985
v  -54.0926 0.5078 -32.3927
v  -54.0926 2.0019 -36.0000
v  -54.0926 0.5078 -39.6073
v  -54.0926 -3.0995 -41.1015
v  -54.0926 -6.7068 -39.6073
v  -57.2900 -6.7068 -32.3927
v  -57.2900 -8.2010 -36.0000
v  -57.2900 -3.0995 -30.8985
v  -57.2900 0.5078 -32.3927
v  -57.2900 2.0019 -36.0000
v  -57.2900 0.5078 -39.6073
v  -57.2900 -3.0995 -41.1015
v  -57.2900 -6.7068 -39.6073
v  -57.6707 -5.8156 -33.2840
v  -57.6707 -6.9406 -36.0000
v  -57.6707 -3.0995 -32.1590
v  -57.6707 -0.3835 -33.2840
v  -57.6707 0.7415 -36.0000
v  -57.6707 -0.3835 -38.7160
v  -57.6707 -3.0995 -39.8410
v  -57.6707 -5.8156 -38.7160
v  -61.7952 -5.8156 -33.2840
v  -61.7952 -6.9406 -36.0000
v  -61.7952 -3.0995 -32.1590
v  -61.7952 -0.3835 -33.2840
v  -61.7952 0.7415 -36.0000
v  -61.7952 -0.3835 -38.7160
v  -61.7952 -3.0995 -39.8410
v  -61.7952 -5.8156 -38.7160
v  -61.7952 -5.1067 -33.9928
v  -61.7952 -5.9381 -36.0000
v  -61.7952 -3.0995 -33.1615
v  -61.7952 -1.0924 -33.9928
v  -61.7952 -0.2610 -36.0000
v  -61.7952 -1.0924 -38.0072
v  -61.7952 -3.0995 -38.8385
v  -61.7952 -5.1067 -38.0072
v  -57.7078 -5.1067 -33.9928
v  -57.7078 -5.9381 -36.0000
v  -57.7078 -3.0995 -33.1615
v  -57.7078 -1.0924 -33.9928
v  -57.7078 -0.2610 -36.0000
v  -57.7078 -1.0924 -38.0072
v  -57.7078 -3.0995 -38.8385
v  -57.7078 -5.1067 -38.0072
v  68.6794 1.7289 -8.4010
v  67.5424 3.0765 -7.6086
v  67.7495 1.7289 -8.4010
v  66.6126 3.0765 -7.6086
# 222 vertices

vn 0.0000 -1.0000 -0.0000
vn 0.0000 0.9732 0.2301
vn 0.0000 1.0000 -0.0000
vn 0.0000 0.9599 0.2804
vn 0.5818 0.8133 0.0000
vn 0.6069 0.7948 -0.0000
vn 0.5095 0.7156 0.4779
vn 0.5037 0.7434 0.4401
vn -0.7298 0.6100 0.3088
vn -0.6826 0.6490 0.3360
vn -0.8374 0.5466 -0.0000
vn -0.8868 0.4622 -0.0000
vn 0.0000 0.9836 0.1806
vn 0.0000 0.5398 0.8418
vn 0.0000 0.9470 0.3212
vn 0.0000 0.9368 0.3498
vn -0.7698 0.6200 0.1515
vn -0.6889 0.6627 0.2937
vn 0.5461 0.4538 0.7042
vn 0.5457 0.4524 0.7054
vn 0.6355 0.4200 0.6479
vn 0.7429 0.3662 0.5603
vn 0.0000 0.9711 0.2389
vn -0.8583 0.5119 -0.0352
vn -0.8849 0.4612 -0.0644
vn 0.8353 0.3058 0.4569
vn 0.8351 0.3077 0.4560
vn 0.0000 -0.9239 -0.3827
vn 0.0000 -0.3827 -0.9239
vn -0.0000 0.3827 -0.9239
vn -0.0000 0.9239 -0.3827
vn -0.0000 0.9239 0.3827
vn -0.0000 0.3827 0.9239
vn 0.0000 -0.3827 0.9239
vn 0.0000 -0.9239 0.3827
vn 0.4475 -0.8262 -0.3422
vn 0.4475 -0.3422 -0.8262
vn 0.4475 0.3422 -0.8262
vn 0.4475 0.8262 -0.3422
vn 0.4475 0.8262 0.3422
vn 0.4475 0.3422 0.8262
vn 0.4475 -0.3422 0.8262
vn 0.4475 -0.8262 0.3422
vn 1.0000 0.0000 -0.0000
vn 0.0000 0.9239 0.3827
vn 0.0000 0.3827 0.9239
vn -0.0000 -0.3827 0.9239
vn -0.0000 -0.9239 0.3827
vn -0.0000 -0.9239 -0.3827
vn 0.0000 0.3827 -0.9239
vn 0.0000 0.9239 -0.3827
vn 0.2541 -0.8936 -0.3701
vn 0.2541 -0.3701 -0.8936
vn 0.2541 0.3701 -0.8936
vn 0.2541 0.8936 -0.3701
vn 0.2541 0.8936 0.3701
vn 0.2541 0.3701 0.8936
vn 0.2541 -0.3701 0.8936
vn 0.2541 -0.8936 0.3701
vn -0.9505 -0.2871 -0.1189
vn -0.9505 -0.1189 -0.2871
vn -0.9505 0.1189 -0.2871
vn -0.9505 0.2871 -0.1189
vn -0.9505 0.2871 0.1189
vn -0.9505 0.1189 0.2871
vn -0.9505 -0.1189 0.2871
vn -0.9505 -0.2871 0.1189
vn -1.0000 0.0000 -0.0000
vn 0.6047 0.7965 -0.0000
vn 0.5279 0.7131 0.4614
vn 0.5266 0.7148 0.4601
vn 0.0000 -0.9934 -0.1147
vn 0.0000 0.9887 0.1501
vn 0.0000 0.5069 0.8620
vn 0.0000 0.9732 -0.2301
vn 0.0000 0.9599 -0.2804
vn 0.5037 0.7434 -0.4401
vn 0.5095 0.7156 -0.4779
vn -0.7298 0.6100 -0.3088
vn -0.6826 0.6490 -0.3360
vn 0.0000 0.9836 -0.1806
vn 0.0000 0.5398 -0.8418
vn 0.0000 0.9368 -0.3498
vn 0.0000 0.9470 -0.3212
vn -0.6889 0.6627 -0.2937
vn -0.7698 0.6200 -0.1515
vn 0.5461 0.4538 -0.7042
vn 0.7429 0.3662 -0.5603
vn 0.6355 0.4200 -0.6479
vn 0.5457 0.4524 -0.7054
vn 0.0000 0.9711 -0.2389
vn -0.8849 0.4612 0.0644
vn -0.8583 0.5119 0.0352
vn 0.8351 0.3077 -0.4560
vn 0.8353 0.3058 -0.4569
vn -0.0000 -0.3827 -0.9239
vn 0.5266 0.7148 -0.4601
vn 0.5279 0.7131 -0.4614
vn 0.0000 -0.9934 0.1147
vn 0.0000 0.9887 -0.1501
vn 0.0000 0.5069 -0.8620
# 101 vertex normals

vt 0.6105 0.3516 0.0000
vt 0.4773 0.3516 0.0000
vt 0.4773 0.2020 0.0000
vt 0.6105 0.2020 0.0000
vt 0.3442 0.3516 0.0000
vt 0.3442 0.2020 0.0000
vt 0.4773 0.5013 0.0000
vt 0.3442 0.5013 0.0000
vt 0.7675 0.6537 0.0000
vt 0.4860 0.4486 0.0000
vt 0.0000 0.4069 0.0000
vt 0.0000 0.6537 0.0000
vt 0.0000 0.5729 0.0000
vt 0.9959 0.5729 0.0000
vt 0.9938 0.8248 0.0000
vt 0.0000 0.8248 0.0000
vt 0.0371 0.3476 0.0000
vt 0.0371 0.1600 0.0000
vt 0.1294 0.1177 0.0000
vt 0.1294 0.2607 0.0000
vt 1.0886 0.6537 0.0000
vt 0.9307 0.5404 0.0000
vt 0.0151 0.4233 0.0000
vt 0.0151 0.5426 0.0000
vt 0.1523 0.4106 0.0000
vt 0.1568 0.3380 0.0000
vt 0.2313 0.0404 0.0000
vt 0.2313 0.1666 0.0000
vt 0.6105 0.5013 0.0000
vt 0.3062 0.2432 0.0000
vt 0.3067 0.2116 0.0000
vt 0.1025 0.0661 0.0000
vt 0.0584 0.1065 0.0000
vt 0.4920 0.5040 0.0000
vt 0.5361 0.4635 0.0000
vt 0.0401 0.1233 0.0000
vt 0.4737 0.5208 0.0000
vt 0.1466 0.0256 0.0000
vt 0.5802 0.4231 0.0000
vt 0.1649 0.0089 0.0000
vt 0.5985 0.4063 0.0000
vt 0.5645 0.5260 1.0000
vt 0.6071 0.5260 1.0000
vt 0.6497 0.5260 1.0000
vt 0.3091 0.5260 1.0000
vt 0.3517 0.5260 1.0000
vt 0.3943 0.5260 1.0000
vt 0.4368 0.5260 1.0000
vt 0.4794 0.5260 1.0000
vt 0.5220 0.5260 1.0000
vt 0.6071 0.1813 1.0000
vt 0.5645 0.1813 1.0000
vt 0.6497 0.1813 1.0000
vt 0.3517 0.1813 1.0000
vt 0.3091 0.1813 1.0000
vt 0.3943 0.1813 1.0000
vt 0.4368 0.1813 1.0000
vt 0.4794 0.1813 1.0000
vt 0.5220 0.1813 1.0000
vt 0.7678 0.1971 0.0000
vt 0.7336 0.1146 0.0000
vt 0.7678 0.0321 0.0000
vt 0.8503 -0.0021 0.0000
vt 0.9328 0.0321 0.0000
vt 0.9670 0.1146 0.0000
vt 0.9328 0.1971 0.0000
vt 0.8503 0.2313 0.0000
vt 0.9843 0.2720 0.0000
vt 0.9843 0.4127 0.0000
vt 0.7913 0.4127 0.0000
vt 0.7913 0.2720 0.0000
# 71 texture coords

g transport_obj
s 1
f 1/1/1 2/2/1 3/3/1 4/4/1 
f 5/3/2 6/2/3 7/5/3 8/6/4 
s 2
f 9/3/5 10/7/6 11/8/7 12/6/8 
f 4/9/9 8/10/10 7/11/11 1/12/12 
s 1
f 2/2/1 9/5/1 12/6/1 3/3/1 
f 11/4/13 10/1/3 6/2/3 5/3/2 
s 4
f 3/13/14 12/14/14 11/15/14 5/16/14 
s 1
f 5/17/2 8/18/4 13/19/15 14/20/16 
s 2
f 8/10/10 4/9/9 15/21/17 13/22/18 
s 1
f 4/4/1 3/3/1 16/3/1 15/4/1 
s 2
f 3/23/19 5/24/20 14/25/21 16/26/22 
s 1
f 14/20/16 13/19/15 17/27/23 18/28/23 
s 2
f 13/29/18 15/4/17 19/4/24 17/29/25 
s 1
f 15/4/1 16/3/1 20/3/1 19/4/1 
s 2
f 16/26/22 14/25/21 18/30/26 20/31/27 
s 1
f 21/32/28 22/33/28 23/34/28 24/35/28 
s 2
f 22/33/29 25/36/29 26/37/29 23/34/29 
s 1
f 25/36/30 27/33/30 28/34/30 26/37/30 
s 2
f 27/33/31 29/32/31 30/35/31 28/34/31 
s 1
f 29/32/32 31/38/32 32/39/32 30/35/32 
s 2
f 31/38/33 33/40/33 34/41/33 32/39/33 
s 1
f 33/40/34 35/38/34 36/39/34 34/41/34 
s 2
f 35/38/35 21/32/35 24/35/35 36/39/35 
s 4
f 24/42/36 23/43/36 37/43/36 38/42/36 
s 8
f 23/43/37 26/44/37 39/44/37 37/43/37 
s 4
f 26/45/38 28/46/38 40/46/38 39/45/38 
s 8
f 28/46/39 30/47/39 41/47/39 40/46/39 
s 4
f 30/47/40 32/48/40 42/48/40 41/47/40 
s 8
f 32/48/41 34/49/41 43/49/41 42/48/41 
s 4
f 34/49/42 36/50/42 44/50/42 43/49/42 
s 8
f 36/50/43 24/42/43 38/42/43 44/50/43 
s 1
f 38/42/44 37/43/44 45/43/44 46/42/44 
f 37/43/44 39/44/44 47/44/44 45/43/44 
f 39/45/44 40/46/44 48/46/44 47/45/44 
f 40/46/44 41/47/44 49/47/44 48/46/44 
f 41/47/44 42/48/44 50/48/44 49/47/44 
f 42/48/44 43/49/44 51/49/44 50/48/44 
f 43/49/44 44/50/44 52/50/44 51/49/44 
f 44/50/44 38/42/44 46/42/44 52/50/44 
s 2
f 46/42/45 45/43/45 53/43/45 54/42/45 
s 4
f 45/43/46 47/44/46 55/44/46 53/43/46 
s 2
f 47/45/47 48/46/47 56/46/47 55/45/34 
s 4
f 48/46/48 49/47/48 57/47/48 56/46/48 
s 2
f 49/47/49 50/48/28 58/48/49 57/47/49 
s 4
f 50/48/29 51/49/29 59/49/29 58/48/29 
s 2
f 51/49/50 52/50/50 60/50/50 59/49/50 
s 4
f 52/50/51 46/42/51 54/42/51 60/50/51 
s 1
f 59/49/44 60/50/44 54/42/44 53/43/44 55/44/44 56/46/44 57/47/44 58/48/44 
s 4
f 22/51/52 21/52/52 61/52/52 62/51/52 
s 8
f 25/53/53 22/51/53 62/51/53 63/53/53 
s 4
f 27/54/54 25/55/54 63/55/54 64/54/54 
s 8
f 29/56/55 27/54/55 64/54/55 65/56/55 
s 4
f 31/57/56 29/56/56 65/56/56 66/57/56 
s 8
f 33/58/57 31/57/57 66/57/57 67/58/57 
s 4
f 35/59/58 33/58/58 67/58/58 68/59/58 
s 8
f 21/52/59 35/59/59 68/59/59 61/52/59 
s 1
f 62/51/49 61/52/49 69/52/49 70/51/28 
s 2
f 63/53/29 62/51/29 70/51/29 71/53/29 
s 1
f 64/54/50 63/55/50 71/55/50 72/54/50 
s 2
f 65/56/51 64/54/51 72/54/51 73/56/51 
s 1
f 66/57/45 65/56/45 73/56/45 74/57/45 
s 2
f 67/58/46 66/57/46 74/57/46 75/58/46 
s 1
f 68/59/34 67/58/34 75/58/34 76/59/34 
s 2
f 61/52/48 68/59/35 76/59/48 69/52/48 
s 4
f 70/51/60 69/52/60 77/52/60 78/51/60 
s 8
f 71/53/61 70/51/61 78/51/61 79/53/61 
s 4
f 72/54/62 71/55/62 79/55/62 80/54/62 
s 8
f 73/56/63 72/54/63 80/54/63 81/56/63 
s 4
f 74/57/64 73/56/64 81/56/64 82/57/64 
s 8
f 75/58/65 74/57/65 82/57/65 83/58/65 
s 4
f 76/59/66 75/58/66 83/58/66 84/59/66 
s 8
f 69/52/67 76/59/67 84/59/67 77/52/67 
s 1
f 78/51/28 77/52/28 85/52/28 86/51/28 
s 2
f 79/53/29 78/51/29 86/51/29 87/53/29 
s 1
f 80/54/30 79/55/50 87/55/30 88/54/30 
s 2
f 81/56/31 80/54/31 88/54/31 89/56/31 
s 1
f 82/57/32 81/56/32 89/56/32 90/57/32 
s 2
f 83/58/33 82/57/33 90/57/33 91/58/46 
s 1
f 84/59/34 83/58/34 91/58/34 92/59/34 
s 2
f 77/52/35 84/59/35 92/59/35 85/52/35 
s 4
f 86/51/68 85/52/68 93/52/68 94/51/68 
f 87/53/68 86/51/68 94/51/68 95/53/68 
f 88/54/68 87/55/68 95/55/68 96/54/68 
f 89/56/68 88/54/68 96/54/68 97/56/68 
f 90/57/68 89/56/68 97/56/68 98/57/68 
f 91/58/68 90/57/68 98/57/68 99/58/68 
f 92/59/68 91/58/68 99/58/68 100/59/68 
f 85/52/68 92/59/68 100/59/68 93/52/68 
s 1
f 94/51/32 93/52/32 101/52/32 102/51/32 
s 2
f 95/53/33 94/51/33 102/51/33 103/53/46 
s 1
f 96/54/34 95/55/34 103/55/34 104/54/34 
s 2
f 97/56/35 96/54/35 104/54/35 105/56/35 
s 1
f 98/57/28 97/56/28 105/56/28 106/57/28 
s 2
f 99/58/29 98/57/29 106/57/29 107/58/29 
s 1
f 100/59/30 99/58/50 107/58/30 108/59/30 
s 2
f 93/52/31 100/59/31 108/59/31 101/52/31 
s 4
f 104/60/68 103/61/68 102/62/68 101/63/68 108/64/68 107/65/68 106/66/68 105/67/68 
s 16
f 109/68/69 110/69/6 111/70/70 112/71/71 
s off
f 109/68/72 112/71/72 113/71/72 114/68/72 
f 111/70/73 110/69/73 115/69/73 116/70/73 
f 112/71/74 111/70/74 116/70/74 113/71/74 
s 1
f 1/1/1 117/4/1 118/3/1 2/2/1 
f 119/3/75 120/6/76 7/5/3 6/2/3 
s 2
f 9/3/5 121/6/77 122/8/78 10/7/6 
f 117/9/79 1/12/12 7/11/11 120/10/80 
s 1
f 2/2/1 118/3/1 121/6/1 9/5/1 
f 122/4/81 119/3/75 6/2/3 10/1/3 
s 4
f 118/13/82 119/16/82 122/15/82 121/14/82 
s 1
f 119/17/75 123/20/83 124/19/84 120/18/76 
s 2
f 120/10/80 124/22/85 125/21/86 117/9/79 
s 1
f 117/4/1 125/4/1 126/3/1 118/3/1 
s 2
f 118/23/87 126/26/88 123/25/89 119/24/90 
s 1
f 123/20/83 127/28/91 128/27/91 124/19/84 
s 2
f 124/29/85 128/29/92 129/4/93 125/4/86 
s 1
f 125/4/1 129/4/1 130/3/1 126/3/1 
s 2
f 126/26/88 130/31/94 127/30/95 123/25/89 
s 1
f 131/32/35 132/35/35 133/34/35 134/33/35 
s 2
f 134/33/34 133/34/34 135/37/34 136/36/34 
s 1
f 136/36/33 135/37/33 137/34/33 138/33/33 
s 2
f 138/33/32 137/34/32 139/35/32 140/32/32 
s 1
f 140/32/31 139/35/31 141/39/31 142/38/31 
s 2
f 142/38/30 141/39/30 143/41/30 144/40/30 
s 1
f 144/40/29 143/41/29 145/39/29 146/38/29 
s 2
f 146/38/28 145/39/28 132/35/28 131/32/28 
s 4
f 132/42/43 147/42/43 148/43/43 133/43/43 
s 8
f 133/43/42 148/43/42 149/44/42 135/44/42 
s 4
f 135/45/41 149/45/41 150/46/41 137/46/41 
s 8
f 137/46/40 150/46/40 151/47/40 139/47/40 
s 4
f 139/47/39 151/47/39 152/48/39 141/48/39 
s 8
f 141/48/38 152/48/38 153/49/38 143/49/38 
s 4
f 143/49/37 153/49/37 154/50/37 145/50/37 
s 8
f 145/50/36 154/50/36 147/42/36 132/42/36 
s 1
f 147/42/44 155/42/44 156/43/44 148/43/44 
f 148/43/44 156/43/44 157/44/44 149/44/44 
f 149/45/44 157/45/44 158/46/44 150/46/44 
f 150/46/44 158/46/44 159/47/44 151/47/44 
f 151/47/44 159/47/44 160/48/44 152/48/44 
f 152/48/44 160/48/44 161/49/44 153/49/44 
f 153/49/44 161/49/44 162/50/44 154/50/44 
f 154/50/44 162/50/44 155/42/44 147/42/44 
s 2
f 155/42/51 163/42/51 164/43/51 156/43/51 
s 4
f 156/43/50 164/43/50 165/44/50 157/44/50 
s 2
f 157/45/96 165/45/29 166/46/96 158/46/96 
s 4
f 158/46/49 166/46/49 167/47/49 159/47/49 
s 2
f 159/47/48 167/47/48 168/48/48 160/48/35 
s 4
f 160/48/34 168/48/34 169/49/34 161/49/34 
s 2
f 161/49/46 169/49/46 170/50/46 162/50/46 
s 4
f 162/50/45 170/50/45 163/42/45 155/42/45 
s 1
f 169/49/44 168/48/44 167/47/44 166/46/44 165/44/44 164/43/44 163/42/44 170/50/44 
s 4
f 134/51/59 171/51/59 172/52/59 131/52/59 
s 8
f 136/53/58 173/53/58 171/51/58 134/51/58 
s 4
f 138/54/57 174/54/57 173/55/57 136/55/57 
s 8
f 140/56/56 175/56/56 174/54/56 138/54/56 
s 4
f 142/57/55 176/57/55 175/56/55 140/56/55 
s 8
f 144/58/54 177/58/54 176/57/54 142/57/54 
s 4
f 146/59/53 178/59/53 177/58/53 144/58/53 
s 8
f 131/52/52 172/52/52 178/59/52 146/59/52 
s 1
f 171/51/35 179/51/35 180/52/35 172/52/35 
s 2
f 173/53/34 181/53/34 179/51/34 171/51/34 
s 1
f 174/54/46 182/54/46 181/55/46 173/55/46 
s 2
f 175/56/45 183/56/45 182/54/45 174/54/45 
s 1
f 176/57/51 184/57/51 183/56/51 175/56/51 
s 2
f 177/58/50 185/58/50 184/57/50 176/57/50 
s 1
f 178/59/29 186/59/29 185/58/29 177/58/29 
s 2
f 172/52/28 180/52/28 186/59/28 178/59/28 
s 4
f 179/51/67 187/51/67 188/52/67 180/52/67 
s 8
f 181/53/66 189/53/66 187/51/66 179/51/66 
s 4
f 182/54/65 190/54/65 189/55/65 181/55/65 
s 8
f 183/56/64 191/56/64 190/54/64 182/54/64 
s 4
f 184/57/63 192/57/63 191/56/63 183/56/63 
s 8
f 185/58/62 193/58/62 192/57/62 184/57/62 
s 4
f 186/59/61 194/59/61 193/58/61 185/58/61 
s 8
f 180/52/60 188/52/60 194/59/60 186/59/60 
s 1
f 187/51/35 195/51/35 196/52/35 188/52/35 
s 2
f 189/53/34 197/53/34 195/51/34 187/51/34 
s 1
f 190/54/33 198/54/33 197/55/33 189/55/46 
s 2
f 191/56/32 199/56/32 198/54/32 190/54/32 
s 1
f 192/57/31 200/57/31 199/56/31 191/56/31 
s 2
f 193/58/30 201/58/50 200/57/30 192/57/30 
s 1
f 194/59/29 202/59/29 201/58/29 193/58/29 
s 2
f 188/52/28 196/52/28 202/59/28 194/59/28 
s 4
f 195/51/68 203/51/68 204/52/68 196/52/68 
f 197/53/68 205/53/68 203/51/68 195/51/68 
f 198/54/68 206/54/68 205/55/68 197/55/68 
f 199/56/68 207/56/68 206/54/68 198/54/68 
f 200/57/68 208/57/68 207/56/68 199/56/68 
f 201/58/68 209/58/68 208/57/68 200/57/68 
f 202/59/68 210/59/68 209/58/68 201/58/68 
f 196/52/68 204/52/68 210/59/68 202/59/68 
s 1
f 203/51/31 211/51/31 212/52/31 204/52/31 
s 2
f 205/53/30 213/53/50 211/51/30 203/51/30 
s 1
f 206/54/29 214/54/29 213/55/29 205/55/29 
s 2
f 207/56/28 215/56/28 214/54/28 206/54/28 
s 1
f 208/57/35 216/57/35 215/56/35 207/56/35 
s 2
f 209/58/34 217/58/34 216/57/34 208/57/34 
s 1
f 210/59/33 218/59/33 217/58/33 209/58/46 
s 2
f 204/52/32 212/52/32 218/59/32 210/59/32 
s 4
f 214/60/68 215/67/68 216/66/68 217/65/68 218/64/68 212/63/68 211/62/68 213/61/68 
s 16
f 109/68/69 219/71/97 220/70/98 110/69/6 
s off
f 109/68/99 114/68/99 221/71/99 219/71/99 
f 220/70/100 222/70/100 115/69/100 110/69/100 
f 219/71/101 221/71/101 222/70/101 220/70/101 
# 202 polygons

