Aaro;AARO;aaro
Ab;AB;ab
Airi;AIRI;airi
Bam;BAM;bam
Bim;BIM;bim
Blo;BLO;blo
Boum;BOUM;boum
Brea;BREA;brea
Chiro;CHIRO;chiro
Cri;CRI;cri
Dan;DAN;dan
Dant;DANT;dant
Derio;DERIO;derio
Dol;DOL;dol
Dou;DOU;dou
Dru;DRU;dru
Eel;EEL;eel
Eff;EFF;eff
Egho;EGHO;egho
Erd;ERD;erd
Eta;ETA;eta
Evi;EVI;evi
Fern;FERN;fern
Fla;FLA;fla
Fou;FOU;fou
Fri;FRI;fri
Fro;FRO;fro
Frog;FROG;frog
Get;GET;get
Ghast;GHAST;ghast
Ghil;GHIL;ghil
Gol;GOL;gol
Gra;GRA;gra
Gru;GRU;gru
Gu;GU;gu
Haro;HARO;haro
Helio;HELIO;helio
Hii;HII;hii
Holo;HOLO;holo
Iga;IGA;iga
Ila;ILA;ila
Ilo;ILO;ilo
Io;IO;io
Irio;IRIO;irio
Jorg;JORG;jorg
Jot;JOT;jot
Jvo;JVO;jvo
Kali;KALI;kali
Kar;KAR;kar
Keo;KEO;keo
Kilo;KILO;kilo
Koli;KOLI;koli
Kro;KRO;kro
Lar;LAR;lar
Lat;LAT;lat
Lilo;LILO;lilo
Lla;LLA;lla
Loi;LOI;loi
Mak;MAK;mak
Mam;MAM;mam
Mimo;MIMO;mimo
Mol;MOL;mol
Mor;MOR;mor
Nan;NAN;nan
Nar;NAR;nar
Nat;NAT;nat
Nego;NEGO;nego
Neo;NEO;neo
Nino;NINO;nino
Nori;NORI;nori
Oil;OIL;oil
Oko;OKO;oko
Oli;OLI;oli
Oogh;OOGH;oogh
Ooine;OOINE;ooine
Oori;OORI;oori
Ordi;ORDI;ordi
Pak;PAK;pak
Pata;PATA;pata
Peta;PETA;peta
Pik;PIK;pik
Poil;POIL;poil
Pok;POK;pok
Poli;POLI;poli
Pyro;PYRO;pyro
Qr;QR;qr
Qui;QUI;qui
Quo;QUO;quo
Ra;RA;ra
Rem;REM;rem
Rim;RIM;rim
Rio;RIO;rio
Rito;RITO;rito
Rol;ROL;rol
Sali;SALI;sali
Sar;SAR;sar
Scar;SCAR;scar
Scrub;SCRUB;scrub
Siallo;SIALLO;siallo
Sir;SIR;sir
Sito;SITO;sito
Soli;SOLI;soli
Sor;SOR;sor
Sori;SORI;sori
Sot;SOT;sot
Taki;TAKI;taki
Tat;TAT;tat
Tellos;TELLOS;tellos
Tero;TERO;tero
Tok;TOK;tok
Tori;TORI;tori
Tra;TRA;tra
Tri;TRI;tri
Tro;TRO;tro
Ugo;UGO;ugo
Uli;ULI;uli
Urt;URT;urt
Uv;UV;uv
Var;VAR;var
Verg;VERG;verg
Vio;VIO;vio
Vo;VO;vo
Wag;WAG;wag
Wallou;WALLOU;wallou
Wil;WIL;wil
Wol;WOL;wol
Woli;WOLI;woli
Xarg;XARG;xarg
Xho;XHO;xho
Xi;XI;xi
Xilo;XILO;xilo
Yav;YAV;yav
Yd;YD;yd
Yet;YET;yet
Ygo;YGO;ygo
Yo;YO;yo
Zag;ZAG;zag
Zaph;ZAPH;zaph
Zatto;ZATTO;zatto
Zed;ZED;zed
Zoli;ZOLI;zoli
Zor;ZOR;zor
;;
